Manipulación de datos multivariantes con R
…
https://bookdown.org/ansellbr/WEHI_tidyR_course_book/manipulating-data-with-dplyr.html

Ejemplo. mutate() en acción.

Calcular la concentración de mercurio total en el tejido muscular del pez ajustada por su longitud total THg (µg kg−1) / Total length (cm) y nombre esa nueva variable como Hg (µg/kg/cm).

Datos %>%
mutate(`Hg (µg/kg/cm)`=`THg (µg kg−1)`/`Total length (cm)`) %>% 
  select(Especie,`Hg (µg/kg/cm)`)

# A tibble: 842 × 2
   Especie             `Hg (µg/kg/cm)`
   <chr>                         <dbl>
 1 Ageneiosus pardalis           24.8 
 2 Ageneiosus pardalis           27.6 
 3 Ageneiosus pardalis           26.4 
 4 Ageneiosus pardalis           22.1 
 5 Ageneiosus pardalis            7.44
 6 Ageneiosus pardalis            4.96
 7 Ageneiosus pardalis            7.10
 8 Ageneiosus pardalis            6.90
 9 Ageneiosus pardalis           21.7 
10 Ageneiosus pardalis           22.3 
# ℹ 832 more rows
…
Ejemplo: pivot_longer() en acción.

Resumamos la tabla transformada por Hábito.

Resumen<-Datos_largos %>% 
    group_by(Hábito_Cod,Variable) %>%  
  summarise(Promedio=mean(Valor,na.rm=TRUE))
Resumen

# A tibble: 24 × 3
# Groups:   Hábito_Cod [6]
   Hábito_Cod Variable          Promedio
   <chr>      <chr>                <dbl>
 1 (C)        % MeHg                91.0
 2 (C)        MeHg (µg kg−1)       592. 
 3 (C)        THg (µg kg−1)        535. 
 4 (C)        Total length (cm)     37.8
 5 (D)        % MeHg                84.6
 6 (D)        MeHg (µg kg−1)        91.4
 7 (D)        THg (µg kg−1)         95.1
 8 (D)        Total length (cm)     24.8
 9 (O)        % MeHg                89.1
10 (O)        MeHg (µg kg−1)        96.8
# ℹ 14 more rows
…
Ejemplo.

Estandarización de todas las variables numéricas.

Datos_Est<-Datos %>% 
mutate(across( c(`THg (µg kg−1)`,`Total length (cm)`,
                        `MeHg (µg kg−1)`,`% MeHg`), 
               ~ round(((.x - mean(.x, na.rm=TRUE)) /
                          sd(.x,na.rm=TRUE)),2)))
Datos_Est %>% select(SitioCod,`THg (µg kg−1)`,`Total length (cm)`,`MeHg (µg kg−1)`,`% MeHg`)

Análisis avanzado - across()

# A tibble: 842 × 5
   SitioCod `THg (µg kg−1)` `Total length (cm)` `MeHg (µg kg−1)` `% MeHg`
   <chr>              <dbl>               <dbl>            <dbl>    <dbl>
 1 MAt                 3.47                2.6              2.95     0.94
 2 MAt                 4.43                3.08             3.91     1.34
 3 MAt                 2.29                1.04             1.87     0.63
 4 MAt                 3.74                3.55             3.26     1.2 
 5 MAt                 0.2                 1.62             0.06     0.32
 6 MAt                -0.35                0.49            NA       NA   
 7 MAt                -0.4                -0.59            NA       NA   
 8 MAt                -0.37               -0.4             NA       NA   
 9 MyVdf               3.87                3.81             3.42     1.4 
10 MyVdf               3.41                3.08             3.03     1.45
# ℹ 832 more rows
…
